…
``` r
#combine 2016 and 2017 datasets
trashwheel_1617 = rbind(trashwheel_2016, trashwheel_2017) %>% 
  mutate(month.name[month], month = NULL) %>% 
  select(month = 3, 1, 2)

trashwheel_1617
```

    ## # A tibble: 24 x 3
    ##    month      year total.precipitation
    ##    <chr>     <dbl>               <dbl>
    ##  1 January    2016                3.23
    ##  2 February   2016                5.32
    ##  3 March      2016                2.24
    ##  4 April      2016                1.78
    ##  5 May        2016                5.19
    ##  6 June       2016                3.2 
    ##  7 July       2016                6.09
    ##  8 August     2016                3.96
    ##  9 September  2016                4.53
    ## 10 October    2016                0.62
    ## # ... with 14 more rows
…
